<svg id="Слой_1" data-name="Слой 1" xmlns="http://www.w3.org/2000/svg" viewBox="0 0 594.31 154.64">
  <title>logo-eng-top</title>
  <g>
    <polyline points="0 0 594.31 0 594.31 51.55 0 51.55" fill="#c3d941"/>
    <polyline points="0 51.55 450.43 51.55 450.43 103.09 0 103.09" fill="#fbaa26"/>
    <polyline points="0 103.09 287.86 103.09 287.86 154.64 0 154.64" fill="#00aeef"/>
    <path d="M571.68,362.43h-5.41v17.11h-4V362.43h-5.41v-3.61h14.87M552.8,379.54h-4V358.82h4v20.72Zm-9.6,0h-4V367.46l-4,7.86h-2.74l-4-7.86v12.08h-4V358.82h4l5.41,11.2,5.38-11.2h4v20.72Zm-24.32,0h-4V367.46l-4,7.86h-2.74l-4-7.86v12.08h-4V358.82h4l5.41,11.2,5.38-11.2h4v20.72Zm-24-7.1c0,4.39-3.38,7.28-7.62,7.28s-7.62-2.88-7.62-7.28V358.82h4V372.3c0,2.39,1.4,3.81,3.58,3.81s3.61-1.43,3.61-3.81V358.82h4v13.62Zm-19.46,1c0,4-3.35,6.28-7.68,6.28-3.14,0-5.53-.67-7.56-2.74l2.62-2.62a6.78,6.78,0,0,0,5,1.75c2.39,0,3.67-.9,3.67-2.56a2.3,2.3,0,0,0-.64-1.75,3.09,3.09,0,0,0-1.83-.73l-2.5-.35a7,7,0,0,1-4-1.72,5.48,5.48,0,0,1-1.48-4.07c0-3.7,2.74-6.28,7.22-6.28a8.88,8.88,0,0,1,6.69,2.41l-2.56,2.53a5.76,5.76,0,0,0-4.25-1.43c-2.15,0-3.2,1.19-3.2,2.62a2,2,0,0,0,.61,1.48,3.57,3.57,0,0,0,1.92.82l2.44,0.35a6.86,6.86,0,0,1,4,1.6A5.8,5.8,0,0,1,475.41,373.43Zm-32.88,0c0,4-3.35,6.28-7.68,6.28-3.14,0-5.53-.67-7.56-2.74l2.62-2.62a6.78,6.78,0,0,0,5,1.75c2.39,0,3.67-.9,3.67-2.56a2.3,2.3,0,0,0-.64-1.75,3.08,3.08,0,0,0-1.83-.73l-2.5-.35a7,7,0,0,1-4-1.72,5.48,5.48,0,0,1-1.48-4.07c0-3.7,2.74-6.28,7.22-6.28a8.87,8.87,0,0,1,6.69,2.41l-2.56,2.53a5.76,5.76,0,0,0-4.25-1.43c-2.15,0-3.2,1.19-3.2,2.62a2,2,0,0,0,.61,1.48,3.57,3.57,0,0,0,1.92.82l2.44,0.35a6.84,6.84,0,0,1,4,1.6A5.8,5.8,0,0,1,442.53,373.43Zm-18.07,6.11H410.82V358.82h13.65v3.61h-9.6v4.86H423v3.61h-8.18v5h9.6v3.61Zm-18.88-7.1c0,4.39-3.37,7.28-7.62,7.28s-7.62-2.88-7.62-7.28V358.82h4V372.3c0,2.39,1.4,3.81,3.58,3.81s3.61-1.43,3.61-3.81V358.82h4v13.62Zm-19.46,1c0,4-3.35,6.28-7.68,6.28-3.14,0-5.53-.67-7.57-2.74l2.62-2.62a6.78,6.78,0,0,0,5,1.75c2.38,0,3.67-.9,3.67-2.56a2.31,2.31,0,0,0-.64-1.75,3.09,3.09,0,0,0-1.83-.73l-2.5-.35a7,7,0,0,1-4-1.72,5.48,5.48,0,0,1-1.48-4.07c0-3.7,2.74-6.28,7.22-6.28a8.87,8.87,0,0,1,6.69,2.41L383,363.59a5.76,5.76,0,0,0-4.25-1.43c-2.15,0-3.2,1.19-3.2,2.62a2,2,0,0,0,.61,1.48,3.58,3.58,0,0,0,1.92.82l2.44,0.35a6.84,6.84,0,0,1,4,1.6A5.8,5.8,0,0,1,386.12,373.43Zm-17.75,0c0,4-3.35,6.28-7.68,6.28-3.14,0-5.53-.67-7.57-2.74l2.62-2.62a6.78,6.78,0,0,0,5,1.75c2.39,0,3.67-.9,3.67-2.56a2.31,2.31,0,0,0-.64-1.75,3.08,3.08,0,0,0-1.83-.73l-2.5-.35a7,7,0,0,1-4-1.72,5.47,5.47,0,0,1-1.48-4.07c0-3.7,2.73-6.28,7.22-6.28a8.87,8.87,0,0,1,6.69,2.41l-2.56,2.53a5.76,5.76,0,0,0-4.25-1.43c-2.15,0-3.2,1.19-3.2,2.62a2,2,0,0,0,.61,1.48,3.56,3.56,0,0,0,1.92.82l2.44,0.35a6.85,6.85,0,0,1,4,1.6A5.8,5.8,0,0,1,368.37,373.43Zm-18.94,6.11h-4V358.82h4v20.72Zm-27.9-10.45c0-3.14-.12-4.45-0.87-5.38a3.61,3.61,0,0,0-3-1.28h-3.05v13.5h3.05a3.61,3.61,0,0,0,3-1.28C321.41,373.72,321.53,372.24,321.53,369.09Zm4,0c0,3.11.23,6.14-2.1,8.47a7.55,7.55,0,0,1-5.47,2h-7.48V358.82H318a7.54,7.54,0,0,1,5.47,2C325.81,363.13,325.57,366,325.57,369.09Zm-24.85,3.37-2.53-7.54-2.62,7.54h5.15Zm6.52,7.07H303l-1.22-3.67h-7.36l-1.25,3.67H289l7.54-20.72h3.17Zm-35,0H258.83V358.82h4v17.11h9.4v3.61ZM249,372.47l-2.53-7.54-2.62,7.54H249Zm6.52,7.07h-4.22l-1.22-3.67h-7.36l-1.25,3.67h-4.22l7.54-20.72H248Zm-21.56,0h-3.61l-8.21-12.72v12.72h-4V358.82h3.61l8.21,12.69V358.82h4v20.72Zm-24.76-10.36c0-4-.23-4.94-1-5.82a3.37,3.37,0,0,0-2.59-1.11,3.43,3.43,0,0,0-2.62,1.11c-0.78.87-1,1.83-1,5.82s0.2,4.95,1,5.82a3.43,3.43,0,0,0,2.62,1.11,3.36,3.36,0,0,0,2.59-1.11C209,374.13,209.22,373.17,209.22,369.18Zm4,0c0,3.58,0,6.17-2.07,8.26a8,8,0,0,1-11.2,0c-2.1-2.09-2-4.68-2-8.26s-0.06-6.17,2-8.26a8.05,8.05,0,0,1,11.2,0C213.3,363,213.27,365.6,213.27,369.18Zm-20.16,10.36h-4V358.82h4v20.72ZM185,362.43h-5.41v17.11h-4V362.43h-5.41v-3.61H185v3.61Zm-21.39,10-2.53-7.54-2.62,7.54h5.15Zm6.52,7.07H166l-1.22-3.67h-7.36l-1.25,3.67h-4.22l7.54-20.72h3.17Zm-21.56,0H145l-8.21-12.72v12.72h-4V358.82h3.61l8.21,12.69V358.82h4v20.72ZM123.8,365.17a2.7,2.7,0,0,0-2.94-2.74h-3.81v5.47h3.81A2.7,2.7,0,0,0,123.8,365.17Zm4.89,14.37H124l-4-8.26h-2.91v8.26h-4V358.82h8.12c4.22,0,6.72,2.88,6.72,6.34a5.58,5.58,0,0,1-3.78,5.44Zm-20.37,0H94.68V358.82h13.65v3.61h-9.6v4.86h8.18v3.61H98.72v5h9.6v3.61ZM90.66,362.43H85.25v17.11h-4V362.43H75.8v-3.61H90.66v3.61ZM71.78,379.54H68.17L60,366.82v12.72h-4V358.82h3.61l8.21,12.69V358.82h4v20.72Zm-21.42,0h-4V358.82h4v20.72Z" transform="translate(-0.83 -343.41)" fill="#fff" fill-rule="evenodd"/>
    <path d="M425.87,413.77l-6.72,17.31H415l6.72-17.31h-5.47V417h-3.61v-6.66h13.18m-18,20.72H404.1V414.44l-4.22,3.67V414l4.22-3.67h3.78v20.72Zm-14.93-6v-8.64a2.53,2.53,0,1,0-5,0v8.64A2.53,2.53,0,1,0,393,425.06Zm3.78,0a6.3,6.3,0,0,1-12.6,0v-8.73a6.3,6.3,0,0,1,12.6,0v8.73Zm-15.68,6h-12.6v-3.4l7.74-9a3.57,3.57,0,0,0,1.08-2.5,2.52,2.52,0,1,0-5,.06h-3.78c0-3.78,2.76-6.05,6.31-6.05s6.28,2.3,6.28,6c0,2-.79,3.08-2.21,4.74l-5.79,6.72h8v3.4Zm-29.76,0h-3.78v-9.25a2.47,2.47,0,1,0-4.92,0v9.25h-3.78V410.37h3.78v7a5,5,0,0,1,3.64-1.57c3.32,0,5.06,2.33,5.06,5.53v9.81Zm-15.92,0h-2.07a4.11,4.11,0,0,1-4.39-4.34v-7.51h-1.6v-2.88h1.6v-4.48h3.78v4.48h2.68v2.88H332.7v7.27a1.19,1.19,0,0,0,1.31,1.37h1.37v3.2Zm-14.11-14.46c0-1.92-1.13-3-2.68-3s-2.68,1.11-2.68,3,1.08,3,2.68,3S321.27,418.55,321.27,416.62Zm3.78,0a12.71,12.71,0,0,1-1.72,5.53l-4.39,9h-4.1l4.31-8.56a4.1,4.1,0,0,1-1.54.26c-2.79,0-5.47-2.3-5.47-6.14a6.11,6.11,0,0,1,6.46-6.46C322.26,410.19,325.05,412.49,325.05,416.59Zm-15.88,14.49h-12.6v-3.4l7.74-9a3.57,3.57,0,0,0,1.08-2.5,2.52,2.52,0,1,0-5,.06h-3.78c0-3.78,2.77-6.05,6.31-6.05s6.29,2.3,6.29,6c0,2-.79,3.08-2.21,4.74l-5.79,6.72h8v3.4Zm-16-6.55h-9V421h9v3.52Zm-12.63,6.55h-3.78v-9.25a2.47,2.47,0,1,0-4.92,0v9.25H268V410.37h3.78v7a5,5,0,0,1,3.64-1.57c3.32,0,5.06,2.33,5.06,5.53v9.81Zm-15.91,0h-2.07a4.11,4.11,0,0,1-4.39-4.34v-7.51h-1.6v-2.88h1.6v-4.48h3.78v4.48h2.68v2.88h-2.68v7.27a1.19,1.19,0,0,0,1.31,1.37h1.37v3.2Zm-14.26-14.87a2.58,2.58,0,1,0-2.56,2.62A2.53,2.53,0,0,0,250.34,416.22Zm0.29,8.79a2.85,2.85,0,1,0-2.85,2.85A2.84,2.84,0,0,0,250.63,425Zm3.78,0.06c0,4-3,6.2-6.63,6.2s-6.63-2.18-6.63-6.2a5.36,5.36,0,0,1,2.59-4.66,5.15,5.15,0,0,1-2.33-4.31c0-3.67,2.91-5.91,6.37-5.91s6.35,2.24,6.35,5.91a5.15,5.15,0,0,1-2.33,4.31A5.38,5.38,0,0,1,254.41,425.06Zm-16,6h-12.6v-3.4l7.74-9a3.57,3.57,0,0,0,1.08-2.5,2.52,2.52,0,1,0-5,.06h-3.78c0-3.78,2.76-6.05,6.31-6.05s6.28,2.3,6.28,6c0,2-.79,3.08-2.21,4.74l-5.79,6.72h8v3.4Zm-33.63-14.38a2.7,2.7,0,0,0-2.94-2.74H198v5.47h3.81A2.7,2.7,0,0,0,204.74,416.71Zm4.89,14.38h-4.68l-4-8.26H198v8.26h-4V410.37h8.12c4.22,0,6.72,2.88,6.72,6.34a5.58,5.58,0,0,1-3.78,5.44Zm-19.64,0H176.35V410.37H190V414h-9.6v4.86h8.18v3.61h-8.18v5H190v3.61Zm-22.11-14.72c0-1.43-1-2.39-2.68-2.39h-4v4.77h4C166.92,418.75,167.88,417.79,167.88,416.36Zm0.29,8.55a2.43,2.43,0,0,0-2.71-2.53h-4.22v5.09h4.22A2.45,2.45,0,0,0,168.17,424.92Zm4,0.21c0,3.87-2.65,6-6.34,6H157.2V410.37h8.32c4,0,6.4,2.27,6.4,5.82a4.79,4.79,0,0,1-2.56,4.28A4.81,4.81,0,0,1,172.22,425.12Zm-19.84,6h-4V419l-4,7.86h-2.74l-4-7.86v12.08h-4V410.37h4l5.41,11.2,5.38-11.2h4v20.72Zm-22.72,0H116V410.37h13.65V414H120v4.86h8.18v3.61H120v5h9.6v3.61ZM112.72,414h-5.41v17.11h-4V414H97.85v-3.61h14.87V414Zm-20.77,2.85a2.76,2.76,0,0,0-3-2.85H85.17v5.68h3.78A2.74,2.74,0,0,0,91.95,416.83Zm4,0c0,3.52-2.56,6.46-6.84,6.46h-4v7.8h-4V410.37h8C93.43,410.37,96,413.31,96,416.83ZM77.16,431.09H63.52V410.37H77.16V414h-9.6v4.86h8.18v3.61H67.56v5h9.6v3.61ZM59.71,425c0,4-3.35,6.28-7.68,6.28-3.14,0-5.53-.67-7.56-2.74l2.62-2.62a6.78,6.78,0,0,0,5,1.75c2.39,0,3.67-.9,3.67-2.56a2.3,2.3,0,0,0-.64-1.74,3.08,3.08,0,0,0-1.83-.73l-2.5-.35a7,7,0,0,1-4-1.72,5.48,5.48,0,0,1-1.48-4.07c0-3.7,2.74-6.29,7.22-6.29a8.88,8.88,0,0,1,6.69,2.42l-2.56,2.53a5.77,5.77,0,0,0-4.25-1.43c-2.15,0-3.2,1.19-3.2,2.62a2,2,0,0,0,.61,1.48,3.57,3.57,0,0,0,1.92.81L54.15,419a6.86,6.86,0,0,1,4,1.6A5.8,5.8,0,0,1,59.71,425Z" transform="translate(-0.83 -343.41)" fill="#fff" fill-rule="evenodd"/>
    <path d="M267.1,474.13c0,3-.55,4.8-2,6.31a7.77,7.77,0,0,1-5.85,2.36,7.59,7.59,0,0,1-5.59-2.27,6,6,0,0,1-1.69-3.11,38.1,38.1,0,0,1,0-10.3,5.89,5.89,0,0,1,1.69-3.11,7.59,7.59,0,0,1,5.59-2.27,7.42,7.42,0,0,1,7.8,6.63H263a3.52,3.52,0,0,0-3.72-3,3.3,3.3,0,0,0-2.59,1.11c-0.76,1-1,1.72-1,5.82s0.17,4.89,1,5.85a3.21,3.21,0,0,0,2.59,1.08,3.73,3.73,0,0,0,2.88-1.17,4.07,4.07,0,0,0,.93-2.76v-0.79h-3.81v-3.37h7.83m-23-2.85a2.7,2.7,0,0,0-2.94-2.74h-3.81V471h3.81A2.7,2.7,0,0,0,244.11,468.26ZM249,482.63h-4.68l-4-8.26h-2.91v8.26h-4V461.91h8.12c4.22,0,6.72,2.88,6.72,6.34a5.58,5.58,0,0,1-3.78,5.44Zm-20.19-7.1c0,4.39-3.37,7.28-7.62,7.28s-7.62-2.88-7.62-7.28V461.91h4v13.47c0,2.39,1.4,3.81,3.58,3.81s3.61-1.43,3.61-3.81V461.91h4v13.62Zm-23.39-7.62c0-1.43-1-2.39-2.68-2.39h-4v4.77h4C204.45,470.3,205.41,469.33,205.41,467.91Zm0.29,8.56a2.43,2.43,0,0,0-2.71-2.53h-4.22V479H203A2.45,2.45,0,0,0,205.71,476.46Zm4,0.2c0,3.87-2.65,6-6.34,6h-8.67V461.91h8.32c4,0,6.4,2.27,6.4,5.82A4.79,4.79,0,0,1,206.9,472,4.81,4.81,0,0,1,209.75,476.67Zm-18.82-.14c0,4-3.34,6.28-7.68,6.28-3.14,0-5.53-.67-7.57-2.74l2.62-2.62a6.78,6.78,0,0,0,5,1.75c2.38,0,3.67-.9,3.67-2.56a2.31,2.31,0,0,0-.64-1.75,3.1,3.1,0,0,0-1.83-.73l-2.5-.35a7,7,0,0,1-4-1.72,5.48,5.48,0,0,1-1.48-4.07c0-3.7,2.74-6.28,7.22-6.28a8.87,8.87,0,0,1,6.69,2.41l-2.56,2.53a5.76,5.76,0,0,0-4.25-1.43c-2.15,0-3.2,1.19-3.2,2.62a2,2,0,0,0,.61,1.48,3.56,3.56,0,0,0,1.92.82l2.44,0.35a6.84,6.84,0,0,1,4,1.6A5.8,5.8,0,0,1,190.93,476.52Zm-21.62-8.26a2.7,2.7,0,0,0-2.94-2.74h-3.81V471h3.81A2.7,2.7,0,0,0,169.31,468.26Zm4.89,14.37h-4.68l-4-8.26h-2.91v8.26h-4V461.91h8.12c4.22,0,6.72,2.88,6.72,6.34a5.58,5.58,0,0,1-3.78,5.44Zm-19.64,0H140.91V461.91h13.65v3.61H145v4.86h8.18V474H145v5h9.6v3.61Zm-16.93-17.11h-5.41v17.11h-4V465.52h-5.41v-3.61h14.87v3.61Zm-17.28,17.11H106.7V461.91h13.65v3.61h-9.6v4.86h8.18V474h-8.18v5h9.6v3.61ZM99.25,468.37a2.76,2.76,0,0,0-3-2.85H92.47v5.67h3.78A2.74,2.74,0,0,0,99.25,468.37Zm4,0c0,3.52-2.56,6.46-6.84,6.46h-4v7.8h-4V461.91h8C100.73,461.91,103.29,464.85,103.29,468.37ZM84,482.63H79.69v-4.31H84v4.31Zm-7.19-17.11H71.43v17.11h-4V465.52H62v-3.61H76.84v3.61Zm-17.14,11c0,4-3.35,6.28-7.68,6.28-3.14,0-5.53-.67-7.56-2.74l2.62-2.62a6.78,6.78,0,0,0,5,1.75c2.39,0,3.67-.9,3.67-2.56a2.3,2.3,0,0,0-.64-1.75,3.09,3.09,0,0,0-1.83-.73l-2.5-.35a7,7,0,0,1-4-1.72A5.48,5.48,0,0,1,45.28,468c0-3.7,2.74-6.28,7.22-6.28a8.88,8.88,0,0,1,6.69,2.41l-2.56,2.53a5.76,5.76,0,0,0-4.25-1.43c-2.15,0-3.2,1.19-3.2,2.62a2,2,0,0,0,.61,1.48,3.56,3.56,0,0,0,1.92.82l2.44,0.35a6.85,6.85,0,0,1,4,1.6A5.8,5.8,0,0,1,59.71,476.52Z" transform="translate(-0.83 -343.41)" fill="#fff" fill-rule="evenodd"/>
  </g>
</svg>
